Process Imagery
…
File Paths of 50 Photographs

Code

file_paths <-  tibble(inpath= sprintf("clean_data/quadrats/quadrat%02d/rgb.tif", seq(34, 83, 1))) 
file_paths

# A tibble: 50 × 1
   inpath                               
   <chr>                                
 1 clean_data/quadrats/quadrat34/rgb.tif
 2 clean_data/quadrats/quadrat35/rgb.tif
 3 clean_data/quadrats/quadrat36/rgb.tif
 4 clean_data/quadrats/quadrat37/rgb.tif
 5 clean_data/quadrats/quadrat38/rgb.tif
 6 clean_data/quadrats/quadrat39/rgb.tif
 7 clean_data/quadrats/quadrat40/rgb.tif
 8 clean_data/quadrats/quadrat41/rgb.tif
 9 clean_data/quadrats/quadrat42/rgb.tif
10 clean_data/quadrats/quadrat43/rgb.tif
# ℹ 40 more rows
…
segment_out <- segment_parameters |>
  mutate(inpath_exists = file.exists(inpath)) |>
  partition(cl) |>
  mutate(outpath = parallel_image_segmentation(inpath, spatial_radius,
                                               range_radius, min_density,
                                               do_computation = FALSE, over_write = FALSE)) |>
  mutate(outpath_exists = file.exists(outpath)) |>
  collect()
segment_out 

# A tibble: 600 × 7
   inpath          spatial_radius range_radius min_density inpath_exists outpath
   <chr>                    <dbl>        <dbl>       <dbl> <lgl>         <chr>  
 1 clean_data/qua…              3          4.5          30 TRUE          clean_…
 2 clean_data/qua…              6          7.5          50 TRUE          clean_…
 3 clean_data/qua…              6          4.5          70 TRUE          clean_…
 4 clean_data/qua…              6          4.5          30 TRUE          clean_…
 5 clean_data/qua…              3          7.5          50 TRUE          clean_…
 6 clean_data/qua…              3          4.5          70 TRUE          clean_…
 7 clean_data/qua…              3          4.5          30 TRUE          clean_…
 8 clean_data/qua…              6          7.5          50 TRUE          clean_…
 9 clean_data/qua…              6          4.5          70 TRUE          clean_…
10 clean_data/qua…              6          4.5          30 TRUE          clean_…
# ℹ 590 more rows
# ℹ 1 more variable: outpath_exists <lgl>
…
color_parameters_total <- rbind(color_parameters_segment, color_parameters)

color_out <- color_parameters_total |>
  mutate(inpath_exists = file.exists(inpath)) |>
  partition(cl) |>
  mutate(outpath = parallel_color_transforms(inpath, transform, do_computation = FALSE, over_write = FALSE)) |>
  mutate(outpath_exists = file.exists(outpath)) |>
  collect()

color_out

# A tibble: 1,950 × 5
   inpath                         transform inpath_exists outpath outpath_exists
   <chr>                          <chr>     <lgl>         <chr>   <lgl>         
 1 clean_data/quadrats/quadrat34… RGBtoLab  TRUE          clean_… TRUE          
 2 clean_data/quadrats/quadrat36… RGBtoYUV  TRUE          clean_… TRUE          
 3 clean_data/quadrats/quadrat39… RGBtoHSL  TRUE          clean_… TRUE          
 4 clean_data/quadrats/quadrat42… RGBtoLab  TRUE          clean_… TRUE          
 5 clean_data/quadrats/quadrat44… RGBtoYUV  TRUE          clean_… TRUE          
 6 clean_data/quadrats/quadrat47… RGBtoHSL  TRUE          clean_… TRUE          
 7 clean_data/quadrats/quadrat50… RGBtoLab  TRUE          clean_… TRUE          
 8 clean_data/quadrats/quadrat53… RGBtoYUV  TRUE          clean_… TRUE          
 9 clean_data/quadrats/quadrat55… RGBtoHSL  TRUE          clean_… TRUE          
10 clean_data/quadrats/quadrat59… RGBtoLab  TRUE          clean_… TRUE          
# ℹ 1,940 more rows
…
texture_out <- texture_parameters |>
  mutate(inpath_exists = file.exists(inpath)) |>
  partition(cl) |>
  mutate(outpath = parallel_texture_calculation(inpath, window, statistic, layer,
                                                do_computation = FALSE, over_write = FALSE)) |>
  collect() |>
  mutate(outpath_exists = file.exists(outpath)) 
texture_out

# A tibble: 200 × 7
   inpath            window statistic layer inpath_exists outpath outpath_exists
   <chr>              <int> <chr>     <int> <lgl>         <chr>   <lgl>         
 1 clean_data/quadr…      5 contrast      3 TRUE          clean_… TRUE          
 2 clean_data/quadr…      5 contrast      3 TRUE          clean_… TRUE          
 3 clean_data/quadr…      5 contrast      3 TRUE          clean_… TRUE          
 4 clean_data/quadr…      5 contrast      3 TRUE          clean_… TRUE          
 5 clean_data/quadr…      5 contrast      3 TRUE          clean_… TRUE          
 6 clean_data/quadr…      5 contrast      3 TRUE          clean_… TRUE          
 7 clean_data/quadr…      5 contrast      3 TRUE          clean_… TRUE          
 8 clean_data/quadr…      5 contrast      3 TRUE          clean_… TRUE          
 9 clean_data/quadr…      5 contrast      3 TRUE          clean_… TRUE          
10 clean_data/quadr…      5 contrast      3 TRUE          clean_… TRUE          
# ℹ 190 more rows
